arch/05_new/03_i386/i386.vcd
$date
	Sat Jul  5 07:04:04 2025
$end
$version
	Icarus Verilog
$end
$timescale
	1ns
$end
$scope module i386 $end
$var wire 1 ! we $end
$var wire 8 " out [7:0] $end
$var wire 20 # address [19:0] $end
$var reg 1 $ clock_25 $end
$var reg 1 % clock_hi $end
$var reg 8 & in [7:0] $end
$var reg 1 ' intr $end
$var reg 1 ( reset_n $end
$scope module CORE $end
$var wire 1 ) _af $end
$var wire 1 * _cf $end
$var wire 1 + _of $end
$var wire 1 , ce $end
$var wire 1 $ clock $end
$var wire 1 - daa_a $end
$var wire 1 . daa_x $end
$var wire 8 / i [7:0] $end
$var wire 8 0 intn [7:0] $end
$var wire 1 ' intr $end
$var wire 1 1 is_add $end
$var wire 1 2 is_lgc $end
$var wire 1 3 m0 $end
$var wire 8 4 port_i [7:0] $end
$var wire 1 5 repa $end
$var wire 1 6 repb $end
$var wire 1 ( reset_n $end
$var wire 1 7 rtfl $end
$var wire 6 8 tn [5:0] $end
$var wire 16 9 sinc [15:0] $end
$var wire 16 : signex [15:0] $end
$var wire 1 ; rtzf $end
$var wire 1 < rtsf $end
$var wire 1 = rtpf $end
$var wire 1 > rtof $end
$var wire 1 ? rtcf $end
$var wire 4 @ rs [3:0] $end
$var wire 16 A ri [15:0] $end
$var wire 16 B repc [15:0] $end
$var wire 16 C r53 [15:0] $end
$var wire 16 D r20 [15:0] $end
$var wire 16 E r16 [15:0] $end
$var wire 8 F opcode [7:0] $end
$var wire 1 G multzf $end
$var wire 1 H multcf $end
$var wire 32 I mult [31:0] $end
$var wire 16 J ean [15:0] $end
$var wire 32 K divi [31:0] $end
$var wire 32 L div4r [31:0] $end
$var wire 33 M div4c [32:0] $end
$var wire 32 N div4a [31:0] $end
$var wire 32 O div4 [31:0] $end
$var wire 32 P div3r [31:0] $end
$var wire 33 Q div3c [32:0] $end
$var wire 32 R div3a [31:0] $end
$var wire 32 S div3 [31:0] $end
$var wire 32 T div2r [31:0] $end
$var wire 33 U div2c [32:0] $end
$var wire 32 V div2a [31:0] $end
$var wire 32 W div2 [31:0] $end
$var wire 32 X div1r [31:0] $end
$var wire 33 Y div1c [32:0] $end
$var wire 32 Z div1a [31:0] $end
$var wire 32 [ div1 [31:0] $end
$var wire 16 \ dinc [15:0] $end
$var wire 16 ] daa_r [15:0] $end
$var wire 9 ^ daa_i [8:0] $end
$var wire 12 _ daa_f [11:0] $end
$var wire 1 ` daa_c $end
$var wire 8 a branch [7:0] $end
$var wire 16 b barr [15:0] $end
$var wire 12 c barf [11:0] $end
$var wire 5 d alu_up [4:0] $end
$var wire 4 e alu_top [3:0] $end
$var wire 17 f alu_r [16:0] $end
$var wire 12 g alu_f [11:0] $end
$var wire 16 h aaa_r [15:0] $end
$var wire 4 i aaa_i [3:0] $end
$var wire 8 j aaa_h [7:0] $end
$var wire 12 k aaa_f [11:0] $end
$var wire 20 l a [19:0] $end
$var wire 1 m _zf $end
$var wire 17 n _shr [16:0] $end
$var wire 17 o _shl [16:0] $end
$var wire 1 p _sf $end
$var wire 33 q _sar [32:0] $end
$var wire 33 r _ror [32:0] $end
$var wire 33 s _rol [32:0] $end
$var wire 33 t _rcr [32:0] $end
$var wire 33 u _rcl [32:0] $end
$var wire 1 v _pf $end
$var parameter 32 w ADC $end
$var parameter 32 x ADD $end
$var parameter 32 y AF $end
$var parameter 32 z AND $end
$var parameter 32 { CF $end
$var parameter 32 | CMP $end
$var parameter 32 } DF $end
$var parameter 32 ~ DIV $end
$var parameter 32 !" IF $end
$var parameter 32 "" INSTR $end
$var parameter 32 #" INTERRUPT $end
$var parameter 32 $" MODRM $end
$var parameter 32 %" OF $end
$var parameter 32 &" OR $end
$var parameter 32 '" PF $end
$var parameter 32 (" POP $end
$var parameter 32 )" PUSH $end
$var parameter 32 *" RCL $end
$var parameter 32 +" RCR $end
$var parameter 32 ," ROL $end
$var parameter 32 -" ROR $end
$var parameter 32 ." SAL $end
$var parameter 32 /" SAR $end
$var parameter 32 0" SBB $end
$var parameter 32 1" SF $end
$var parameter 32 2" SHL $end
$var parameter 32 3" SHR $end
$var parameter 32 4" SUB $end
$var parameter 32 5" TF $end
$var parameter 32 6" UNDEF $end
$var parameter 32 7" WB $end
$var parameter 32 8" XOR $end
$var parameter 32 9" ZF $end
$var reg 4 :" alu [3:0] $end
$var reg 16 ;" ax [15:0] $end
$var reg 16 <" bp [15:0] $end
$var reg 16 =" bx [15:0] $end
$var reg 1 >" cp $end
$var reg 1 ?" cpen $end
$var reg 1 @" cpm $end
$var reg 16 A" cs [15:0] $end
$var reg 16 B" cx [15:0] $end
$var reg 16 C" di [15:0] $end
$var reg 1 D" dir $end
$var reg 32 E" diva [31:0] $end
$var reg 32 F" divb [31:0] $end
$var reg 32 G" divr [31:0] $end
$var reg 16 H" ds [15:0] $end
$var reg 16 I" dx [15:0] $end
$var reg 16 J" ea [15:0] $end
$var reg 16 K" es [15:0] $end
$var reg 12 L" flags [11:0] $end
$var reg 16 M" fs [15:0] $end
$var reg 16 N" gs [15:0] $end
$var reg 1 O" halt $end
$var reg 1 P" imulw $end
$var reg 8 Q" interrupt [7:0] $end
$var reg 1 R" intrack $end
$var reg 16 S" ip [15:0] $end
$var reg 6 T" m [5:0] $end
$var reg 3 U" mi [2:0] $end
$var reg 8 V" modrm [7:0] $end
$var reg 3 W" next [2:0] $end
$var reg 8 X" o [7:0] $end
$var reg 16 Y" op1 [15:0] $end
$var reg 16 Z" op2 [15:0] $end
$var reg 8 [" opc [7:0] $end
$var reg 1 \" over $end
$var reg 16 ]" port_a [15:0] $end
$var reg 8 ^" port_o [7:0] $end
$var reg 1 _" port_r $end
$var reg 1 `" port_w $end
$var reg 3 a" r [2:0] $end
$var reg 2 b" rep [1:0] $end
$var reg 16 c" sgn [15:0] $end
$var reg 16 d" si [15:0] $end
$var reg 1 e" sign $end
$var reg 1 f" size $end
$var reg 16 g" sp [15:0] $end
$var reg 16 h" ss [15:0] $end
$var reg 6 i" t [5:0] $end
$var reg 16 j" t16 [15:0] $end
$var reg 1 k" term $end
$var reg 1 l" ud $end
$var reg 1 ! w $end
$var reg 16 m" wb [15:0] $end
$upscope $end
$upscope $end
$enddefinitions $end
$comment Show the parameter values. $end
$dumpall
b110 9"
b110 8"
b10 7"
b110 6"
b1000 5"
b101 4"
b101 3"
b100 2"
b111 1"
b11 0"
b111 /"
b110 ."
b1 -"
b0 ,"
b11 +"
b10 *"
b11 )"
b100 ("
b10 '"
b1 &"
b1011 %"
b1 $"
b101 #"
b0 ""
b1001 !"
b111 ~
b1010 }
b111 |
b0 {
b100 z
b100 y
b0 x
b10 w
$end
#0
$dumpvars
bx m"
xl"
xk"
bx j"
bx i"
b0 h"
b0 g"
xf"
xe"
b1101111010101101 d"
bx c"
bx b"
bx a"
x`"
x_"
bx ^"
bx ]"
x\"
bx ["
bx Z"
bx Y"
bx X"
bx W"
bx V"
bx U"
bx T"
bx S"
xR"
bx Q"
xP"
xO"
b0 N"
b0 M"
bx L"
b101110000000 K"
bx J"
b1011111011101111 I"
b0 H"
bx G"
bx F"
bx E"
xD"
b0 C"
b100 B"
b0 A"
x@"
x?"
x>"
b1011101010111010 ="
b0 <"
b1100101010 ;"
bx :"
xv
bx u
bx t
bx s
bx r
bx q
xp
bx o
bx n
xm
bx l
bx1xxx1 k
b0xx0 j
b0x00 i
b0xx000000x00 h
bx0x0x1x g
bx f
bx111 e
bx d
bx0x0x1x c
bx b
bx a
0`
bx010x1x _
b1x0x00 ^
bx ]
bx \
bx [
bx Z
bx Y
bx X
bx W
bx V
bx U
bx T
bx S
bx R
bx Q
bx P
bx O
bx N
bx M
bx L
bx0xxxx1xxx101x1x000000xx00x0x0x0 K
bx J
bx I
xH
xG
bx F
bx E
bx D
bx C
bx B
bx A
bx @
x?
x>
x=
x<
x;
bx :
bx 9
bx 8
x7
x6
x5
bz 4
x3
x2
x1
b11 0
bx /
x.
1-
1,
x+
x*
x)
0(
0'
bx &
0%
0$
bx #
bx "
x!
$end
#5
1%
#10
0%
#15
1%
#20
15
06
b1010 a
bx000xx0x0x1x g
b0xx010x1x _
b10011 k
bx000xx000x1x c
b100000000 #
b100000000 l
13
b100000000 S"
b11 L"
0?"
b0 b"
0\"
0k"
b0 c"
0R"
0O"
0l"
0>"
b0 U"
b0 T"
b1 8
b0 i"
b0 a"
0%
1$
#25
b100100 ]
b10110 _
0.
b100 i
b1000000100 h
b100100 ^
b10 j
b0 B
b0xx D
b0x0xxx0x0 C
b0 E
b11111100 F
b1111111111111100 :
b11111100 &
b11111100 /
1%
#30
0%
1(
#35
1%
#40
0%
0$
#45
1%
#50
0%
#55
1%
#60
b10111010 C
b11 D
0<
0;
0=
07
02
b1101111010101110 9
b1 \
b1000 d
b111 e
01
b0xxxxxxxx b
b1x c
0>
b0xxx @
b11001010100000000000000000 K
b100000001 #
b100000001 l
1k"
b111 :"
0D"
0f"
b0 W"
1@"
1?"
b100000001 S"
b11111100 ["
b1 8
b0 i"
0`"
0_"
0!
0%
1$
#65
b11101111 D
b1011111011101111 E
b11111010 F
b1111111111111010 :
b11111010 &
b11111010 /
1%
#70
0%
#75
1%
#80
0%
0$
#85
1%
#90
0%
#95
1%
#100
b100000010 #
b100000010 l
1D"
b100000010 S"
b11111010 ["
b1 8
b0 i"
1k"
0%
1$
#105
b11 D
b0 E
b10111100 F
b1111111110111100 :
b10111100 &
b10111100 /
1%
#110
0%
1'
#115
1%
#120
0%
0$
#125
1%
#130
0%
#135
1%
#140
b100000011 #
b100000011 l
03
0D"
b100000011 S"
b10111100 ["
b10 8
b1 i"
0k"
0%
1$
#145
b101010 D
b101010 C
b1100101010 E
b0 :
b0 &
b0 /
1%
#150
0%
#155
1%
#160
0%
0$
#165
1%
#170
0%
#175
1%
#180
b100000100 #
b100000100 l
b11 8
b10 i"
b0 m"
b100000100 S"
0%
1$
#185
b100 D
b100 E
b1 :
b1 &
b1 /
1%
#190
0%
#195
1%
#200
0%
0$
#205
1%
#210
0%
#215
1%
#220
bx b
b110000 ]
b0 i
b10000000000 h
b110000 ^
b100 j
b1101111010101111 9
b10 \
b1100101010 C
b10000 d
b1111 e
b1 F
bx @
b10111110111011110000001100101010 K
b100000101 #
b100000101 l
1k"
b1 8
b0 i"
bx100xxx V"
1D"
1f"
b10 a"
b100000000 m"
b100000101 S"
0%
1$
#225
b1101111010101101 C
b110001 F
b110001 :
b110001 &
b110001 /
1%
#230
0%
#235
1%
#240
0%
0$
#245
1%
#250
0%
#255
1%
#260
13
b100000000 g"
b0 a"
0%
1$
#265
1%
#270
0%
#275
1%
#280
0%
0$
#285
1%
#290
0%
#295
1%
#300
0?
b0xxxxxxxxxxxxxxxx f
0+
0)
b0xx000x10 g
0*
x<
x;
x=
12
17
bx000xx000x10 c
x>
b100000110 #
b100000110 l
03
b1 a"
b110 :"
0D"
b100000110 S"
b110001 ["
b10 8
b1 i"
0k"
0%
1$
#305
b1100101010 D
b1100101010 C
b1100101010 E
b1111111111000000 :
b11000000 &
b11000000 /
1%
#310
0%
#315
1%
#320
0%
0$
#325
1%
#330
0%
#335
1%
#340
0>
1;
1=
b1000110 c
0<
b0 b
1m
1v
b1000110 g
0p
b0 f
1H
0G
b10100000001011100100 I
b10101000000011001010100000000000 s
b11001010100000001 r
b10101010000001100101010000000000 u
b110010101010000001 t
b1010 @
b0 o
b0 n
b0 q
b1100101010 A
b100000111 #
b100000111 l
b0 a"
b1001100101101000 J
b1001100101100111 J"
b1100101010 Z"
b1100101010 Y"
b100000111 S"
b11000000 V"
0%
1$
#345
b1101111010101101 D
b100 C
b1101111010101101 E
b1111111110001110 :
b10001110 &
b10001110 /
1%
#350
0%
#355
1%
#360
0%
0$
#365
1%
#370
0%
#375
1%
#380
b100100 ]
b100 i
b1000000100 h
b100100 ^
b10 j
b10001110 F
b10101100 a
b1010111 k
b10101000000001100101010000000000 u
b110010101000000001 t
1k"
b1 8
b0 i"
b1000110 L"
b0 m"
b10 a"
0%
1$
#385
1%
#390
0%
#395
1%
#400
0%
0$
#405
1%
#410
0%
#415
1%
#420
b0 ]
b0 i
b0 h
b0 ^
b0 j
b1000110 _
b1000110 k
0-
b10111110111011110000000000000000 K
13
b0 ;"
b0 a"
0%
1$
#425
1%
#430
0%
#435
1%
#440
0%
0$
#445
1%
#450
0%
#455
1%
#460
0m
b10 g
0v
b1100101010000000 b
b1000111 c
1?
b1100101010 f
07
b100001000 #
b100001000 l
03
b1 a"
b1 :"
1D"
1f"
b100001000 S"
b10001110 ["
b10 8
b1 i"
0k"
0%
1$
#465
b1011101010111010 C
b0 D
b0 E
b1111111111011000 :
b11011000 &
b11011000 /
1%
#470
0%
#475
1%
#480
0%
0$
#485
1%
#490
0%
#495
1%
#500
1>
b100001000110 c
0?
b1011101010111010 b
b10000010 g
1p
b1011101010111010 f
b0 @
xH
b1011101010111010 o
b10111010101110100 n
b111111111111111110111010101110100 q
xG
b10111010101110101011101010111010 s
b101110101011101010111010101110100 r
b10111010101110100101110101011101 u
b11101010111010010111010101110100 t
b1011101010111010 A
b100001001 #
b100001001 l
b0 a"
b0 Z"
bx I
b1011101010111010 Y"
b100001001 S"
b11011000 V"
0%
1$
#505
b1101111010101101 D
b1101111010101101 E
b100 C
b1111111110001110 :
b10001110 &
b10001110 /
1%
#510
0%
#515
1%
#520
0%
0$
#525
1%
#530
0%
#535
1%
#540
13
1k"
b1 8
b0 i"
0%
1$
#545
1%
#550
0%
#555
1%
#560
0%
0$
#565
1%
#570
0%
#575
1%
#580
b100001010 #
b100001010 l
03
b1 a"
1f"
b100001010 S"
b10 8
b1 i"
0k"
0%
1$
#585
b1011111011101111 C
b0 D
b0 E
b1111111111010000 :
b11010000 &
b11010000 /
1%
#590
0%
#595
1%
#600
0%
0$
#605
1%
#610
0%
#615
1%
#620
b1011111011101111 b
b1011111011101111 f
b10111110111011111011111011101111 s
b101111101110111110111110111011110 r
b10111110111011110101111101110111 u
b11111011101111010111110111011110 t
b1011111011101111 o
b10111110111011110 n
b111111111111111110111110111011110 q
b1011111011101111 A
b100001011 #
b100001011 l
b0 a"
b1011111011101111 Y"
b100001011 S"
b11010000 V"
0%
1$
#625
b0 C
b1111111110111000 :
b10111000 &
b10111000 /
1%
#630
0%
#635
1%
#640
0%
0$
#645
1%
#650
0%
#655
1%
#660
13
b10111000 F
1k"
b1 8
b0 i"
0%
1$
#665
1%
#670
0%
#675
1%
#680
0%
0$
#685
1%
#690
0%
#695
1%
#700
b10111010 C
b11101111 b
b1000110 c
0>
b1101111010101110 9
b1 \
b1000 d
b111 e
02
b11101111111011111110111111101111 s
b111011111110111111101111111011110 r
b11101111111011110111011111110111 u
b110111111101111011101111111011110 t
b1110111111101111 o
b11101111111011110 n
b111111111111111111101111111011110 q
b1110111111101111 A
b0 K
b100001100 #
b100001100 l
03
b111 :"
0D"
0f"
b100001100 S"
b10111000 ["
b10 8
b1 i"
0k"
0%
1$
#705
b0 C
b0 :
b0 &
b0 /
1%
#710
0%
#715
1%
#720
0%
0$
#725
1%
#730
0%
#735
1%
#740
b100001101 #
b100001101 l
b11 8
b10 i"
b100001101 S"
0%
1$
#745
b0 C
b1111111110100000 :
b10100000 &
b10100000 /
1%
#750
0%
#755
1%
#760
0%
0$
#765
1%
#770
0%
#775
1%
#780
b1011111011101111 b
b100000000 C
b1101111010101111 9
b10 \
b10000 d
b1111 e
b10100000 F
b10111110111011111011111011101111 s
b101111101110111110111110111011110 r
b10111110111011110101111101110111 u
b11111011101111010111110111011110 t
b1011111011101111 o
b10111110111011110 n
b111111111111111110111110111011110 q
b1011111011101111 A
b10111110111011110000000000000000 K
b100001110 #
b100001110 l
1k"
b1 8
b0 i"
b11000000 V"
1D"
1f"
b10 a"
b1010000000000000 m"
b100001110 S"
0%
1$
#785
b1101111010101101 D
b1101111010101101 E
b100 C
b10001110 F
b1111111110001110 :
b10001110 &
b10001110 /
1%
#790
0%
#795
1%
#800
0%
0$
#805
1%
#810
0%
#815
1%
#820
b10100000 j
b1010000000000000 h
b10111110111011111010000000000000 K
13
b1010000000000000 ;"
b0 a"
0%
1$
#825
1%
#830
0%
#835
1%
#840
0%
0$
#845
1%
#850
0%
#855
1%
#860
b100001000110 c
1>
12
b100001111 #
b100001111 l
03
b1 a"
b1 :"
1f"
b100001111 S"
b10001110 ["
b10 8
b1 i"
0k"
0%
1$
#865
b1010000000000000 D
b1010000000000000 C
b1010000000000000 E
b1111111111000000 :
b11000000 &
b11000000 /
1%
#870
0%
#875
1%
#880
0%
0$
#885
1%
#890
0%
#895
1%
#900
b1010000000000000 b
b10000110 g
1v
b1010000000000000 f
b10100000000000001010000000000000 s
b101000000000000010100000000000000 r
b10100000000000000101000000000000 u
b10000000000000010100000000000000 t
b1010000000000000 o
b10100000000000000 n
b111111111111111110100000000000000 q
b1010000000000000 A
b100010000 #
b100010000 l
b0 a"
b1010000000000000 Z"
b1010000000000000 Y"
b100010000 S"
0%
1$
#905
b1011111011101111 D
b0 C
b1011111011101111 E
b1111111110111010 :
b10111010 &
b10111010 /
1%
#910
0%
#915
1%
#920
0%
0$
#925
1%
#930
0%
#935
1%
#940
13
b10111010 F
1k"
b1 8
b0 i"
b1010000000000000 K"
0%
1$
#945
1%
#950
0%
#955
1%
#960
0%
0$
#965
1%
#970
0%
#975
1%
#980
b10111010 C
b0 b
b11101111 D
b0 f
b1000110 c
0>
b1101111010101110 9
b1 \
b1000 d
0p
b111 e
02
b1000110 g
1m
b0 s
b0 r
b0 u
b0 t
b0 o
b0 n
b0 q
b0 A
b10100000000000000000000000000000 K
b100010001 #
b100010001 l
03
b111 :"
0f"
b100010001 S"
b10111010 ["
b10 8
b1 i"
0k"
0%
1$
#985
b0 D
b1010000000000000 E
b1111111111011000 :
b11011000 &
b11011000 /
1%
#990
0%
#995
1%
#1000
0%
0$
#1005
1%
#1010
0%
#1015
1%
#1020
b100010010 #
b100010010 l
b11 8
b10 i"
b11011000 m"
b100010010 S"
0%
1$
#1025
b10111010 D
b0 C
b1011101010111010 E
b11 :
b11 &
b11 /
1%
#1030
0%
#1035
1%
#1040
0%
0$
#1045
1%
#1050
0%
#1055
1%
#1060
b1010000000000000 b
b1011101010111010 D
b1101111010101111 9
b10 \
b1010000000000000 C
b10000 d
b1111 e
b11 F
b10100000000000001010000000000000 s
b101000000000000010100000000000000 r
b10100000000000000101000000000000 u
b10000000000000010100000000000000 t
b1010000000000000 o
b10100000000000000 n
b111111111111111110100000000000000 q
b1010000000000000 A
b10111110111011111010000000000000 K
b100010011 #
b100010011 l
1k"
b1 8
b0 i"
b11010000 V"
1f"
b10 a"
b1111011000 m"
b100010011 S"
0%
1$
#1065
b1010000000000000 D
b1101111010101101 C
b1010000000000000 E
b10110000 F
b1111111110110000 :
b10110000 &
b10110000 /
1%
#1070
0%
#1075
1%
#1080
0%
0$
#1085
1%
#1090
0%
#1095
1%
#1100
b11110110001010000000000000 K
13
b1111011000 I"
b0 a"
0%
1$
#1105
1%
#1110
0%
#1115
1%
#1120
0%
0$
#1125
1%
#1130
0%
#1135
1%
#1140
b11 C
b0 b
12
17
b1000110 c
0>
b1101111010101110 9
b1 \
b0 D
b1000 d
b111 e
b0 s
b0 r
b0 u
b0 t
b0 o
b0 n
b0 q
b0 A
b10100000000000000000000000000000 K
b100010100 #
b100010100 l
03
b110 :"
0D"
0f"
b100010100 S"
b10110000 ["
b10 8
b1 i"
0k"
0%
1$
#1145
b10100000 D
b0 C
b100000000 E
b100 :
b100 &
b100 /
1%
#1150
0%
#1155
1%
#1160
0%
0$
#1165
1%
#1170
0%
#1175
1%
#1180
b100 F
b100010101 #
b100010101 l
1k"
b11000000 V"
1D"
b10 a"
b1 8
b0 i"
b100 m"
b100010101 S"
0%
1$
#1185
b11 D
b1101111010101101 E
b0 C
b11101110 F
b1111111111101110 :
b11101110 &
b11101110 /
1%
#1190
0%
#1195
1%
#1200
0%
0$
#1205
1%
#1210
0%
#1215
1%
#1220
b10 _
b100 ]
b100 i
b100 ^
b1010000000000100 h
b10100000000001000000000000000000 K
13
b1010000000000100 ;"
b0 a"
0%
1$
#1225
1%
#1230
0%
#1235
1%
#1240
0%
0$
#1245
1%
#1250
0%
#1255
1%
#1260
02
b100010110 #
b100010110 l
03
b101 :"
b100010110 S"
b11101110 ["
b10 8
b1 i"
0k"
0%
1$
#1265
b11 C
b100 D
b100 E
b110001 :
b110001 &
b110001 /
1%
#1270
0%
#1275
1%
#1280
0%
0$
#1285
1%
#1290
0%
#1295
1%
#1300
13
b110001 F
1k"
1`"
b100 ^"
b1111011000 ]"
b1 8
b0 i"
0%
1$
#1305
1%
#1310
0%
#1315
1%
#1320
0%
0$
#1325
1%
#1330
0%
#1335
1%
#1340
1>
0;
b100010000110 c
1<
b1010000000000000 b
b1101111010101101 C
12
b1101111010101111 9
b10 \
b10000 d
b1111 e
b10100000000000001010000000000000 s
b101000000000000010100000000000000 r
b10100000000000000101000000000000 u
b10000000000000010100000000000000 t
b1010000000000000 o
b10100000000000000 n
b111111111111111110100000000000000 q
b1010000000000000 A
b11110110001010000000000100 K
b100010111 #
b100010111 l
03
b1 a"
b110 :"
0D"
1f"
b100010111 S"
b110001 ["
b10 8
b1 i"
0k"
0`"
0%
1$
#1345
b0 C
b0 D
b0 E
b1111111111111111 :
b11111111 &
b11111111 /
1%
#1350
0%
#1355
1%
#1360
0%
0$
#1365
1%
#1370
0%
#1375
1%
#1380
0>
1;
b1000110 c
0<
b0 b
0H
1G
b0 I
b0 s
b0 r
b0 u
b0 t
b0 o
b0 n
b0 q
b0 A
b100011000 #
b100011000 l
b0 a"
b1011101010111011 J
b1011101010111010 J"
b0 Z"
b0 Y"
b100011000 S"
b11111111 V"
0%
1$
#1385
b100 D
b100 E
b1111111110111001 :
b10111001 &
b10111001 /
1%
#1390
0%
#1395
1%
#1400
0%
0$
#1405
1%
#1410
0%
#1415
1%
#1420
b10111001 F
1k"
b1 8
b0 i"
b0 m"
b10 a"
0%
1$
#1425
1%
#1430
0%
#1435
1%
#1440
0%
0$
#1445
1%
#1450
0%
#1455
1%
#1460
13
b0 a"
0%
1$
#1465
1%
#1470
0%
#1475
1%
#1480
0%
0$
#1485
1%
#1490
0%
#1495
1%
#1500
02
07
b100011001 #
b100011001 l
03
b111 :"
b100011001 S"
b10111001 ["
b10 8
b1 i"
0k"
0%
1$
#1505
b1010000000000100 D
b1010000000000100 C
b1010000000000100 E
b0 :
b0 &
b0 /
1%
#1510
0%
#1515
1%
#1520
0%
0$
#1525
1%
#1530
0%
#1535
1%
#1540
b100011010 #
b100011010 l
b11 8
b10 i"
b100011010 S"
0%
1$
#1545
b1111111110000000 :
b10000000 &
b10000000 /
1%
#1550
0%
#1555
1%
#1560
0%
0$
#1565
1%
#1570
0%
#1575
1%
#1580
b10000000 F
b100011011 #
b100011011 l
1k"
b1 8
b0 i"
b11001111 V"
1D"
b10 a"
b1000000000000000 m"
b100011011 S"
0%
1$
#1585
b0 C
b10111000 F
b1111111110111000 :
b10111000 &
b10111000 /
1%
#1590
0%
#1595
1%
#1600
0%
0$
#1605
1%
#1610
0%
#1615
1%
#1620
13
b1000000000000000 B"
b0 a"
0%
1$
#1625
1%
#1630
0%
#1635
1%
#1640
0%
0$
#1645
1%
#1650
0%
#1655
1%
#1660
b10111010 C
b1101111010101110 9
b1 \
b100 D
b1000 d
b111 e
b10100000000001000000000000000000 K
b100011100 #
b100011100 l
03
0D"
0f"
b100011100 S"
b10111000 ["
b10 8
b1 i"
0k"
0%
1$
#1665
b11 C
b10111010 D
b1011101010111010 E
b110011 :
b110011 &
b110011 /
1%
#1670
0%
#1675
1%
#1680
0%
0$
#1685
1%
#1690
0%
#1695
1%
#1700
b100011101 #
b100011101 l
b11 8
b10 i"
b110011 m"
b100011101 S"
0%
1$
#1705
1%
#1710
0%
#1715
1%
#1720
0%
0$
#1725
1%
#1730
0%
#1735
1%
#1740
b1101111010101101 C
b1011101010111010 D
b1101111010101111 9
b10 \
b10000 d
b1111 e
b110011 F
b11110110001010000000000100 K
b100011110 #
b100011110 l
1k"
b1 8
b0 i"
b11000111 V"
1D"
1f"
b10 a"
b11001100110011 m"
b100011110 S"
0%
1$
#1745
b11110011 F
b1111111111110011 :
b11110011 &
b11110011 /
1%
#1750
0%
#1755
1%
#1760
0%
0$
#1765
1%
#1770
0%
#1775
1%
#1780
b110 _
b110011 ]
b11 i
b110011 ^
b110011 j
b11001100110011 h
b11110110000011001100110011 K
13
b11001100110011 ;"
b0 a"
0%
1$
#1785
1%
#1790
0%
#1795
1%
#1800
0%
0$
#1805
1%
#1810
0%
#1815
1%
#1820
15
16
b1111111111111110 B
12
17
b100011111 #
b100011111 l
b11 b"
b110 :"
b100011111 S"
b11110011 ["
b1 8
b0 i"
0k"
0%
1$
#1825
b0 C
b10101011 F
b1111111110101011 :
b10101011 &
b10101011 /
1%
#1830
0%
#1835
1%
#1840
0%
0$
#1845
1%
#1850
0%
#1855
1%
#1860
02
b100100000 #
b100100000 l
03
b101 :"
b100100000 S"
b10101011 ["
b10 8
b1 i"
0%
1$
#1865
b1101111010101101 C
b100000000 D
b100000000 E
b111111111111111 B
b1111111111110100 :
b11110100 &
b11110100 /
1%
#1870
0%
#1875
1%
#1880
0%
0$
#1885
1%
#1890
0%
#1895
1%
#1900
b1011101010111010 #
b1011101010111010 l
1>"
b11 8
b10 i"
0%
1$
#1905
bx B
bx D
bx C
bx E
bx :
bx &
bx /
1%
#1910
0%
#1915
1%
#1920
0%
0$
#1925
1%
#1930
0%
#1935
1%
#1940
b11 \
b10100000000000000000 #
b10100000000000000000 l
b1 C"
1!
b1 J
b0 J"
b1010000000000000 c"
b110011 "
b110011 X"
b100 8
b11 i"
0%
1$
#1945
1%
#1950
0%
#1955
1%
#1960
0%
0$
#1965
1%
#1970
0%
#1975
1%
#1980
b100 \
b10100000000000000001 #
b10100000000000000001 l
b111111111111111 B"
b10 C"
b10 J
b1 J"
b11 8
b10 i"
1!
0%
1$
#1985
1%
#1990
0%
#1995
1%
#2000
0%
0$
#2005
1%
#2010
0%
#2015
1%
#2020
b101 \
b10100000000000000010 #
b10100000000000000010 l
b11 C"
b11 J
b10 J"
b100 8
b11 i"
1!
0%
1$
#2025
1%
#2030
0%
#2035
1%
#2040
0%
0$
#2045
1%
#2050
0%
#2055
1%
#2060
b110 \
b10100000000000000011 #
b10100000000000000011 l
b111111111111110 B"
b100 C"
b100 J
b11 J"
b11 8
b10 i"
1!
0%
1$
#2065
1%
#2070
0%
#2075
1%
#2080
0%
0$
#2085
1%
#2090
0%
#2095
1%
#2100
b111 \
b10100000000000000100 #
b10100000000000000100 l
b101 C"
b101 J
b100 J"
b100 8
b11 i"
1!
0%
1$
#2105
1%
#2110
0%
#2115
1%
#2120
0%
0$
#2125
1%
#2130
0%
#2135
1%
#2140
b1000 \
b10100000000000000101 #
b10100000000000000101 l
b111111111111101 B"
b110 C"
b110 J
b101 J"
b11 8
b10 i"
1!
0%
1$
#2145
1%
#2150
0%
#2155
1%
#2160
0%
0$
#2165
1%
#2170
0%
#2175
1%
#2180
b1001 \
b10100000000000000110 #
b10100000000000000110 l
b111 C"
b111 J
b110 J"
b100 8
b11 i"
1!
0%
1$
#2185
1%
#2190
0%
#2195
1%
#2200
0%
0$
#2205
1%
#2210
0%
#2215
1%
#2220
b1010 \
b10100000000000000111 #
b10100000000000000111 l
b111111111111100 B"
b1000 C"
b1000 J
b111 J"
b11 8
b10 i"
1!
0%
1$
#2225
1%
#2230
0%
#2235
1%
#2240
0%
0$
#2245
1%
#2250
0%
#2255
1%
#2260
b1011 \
b10100000000000001000 #
b10100000000000001000 l
b1001 C"
b1001 J
b1000 J"
b100 8
b11 i"
1!
0%
1$
#2265
1%
#2270
0%
#2275
1%
#2280
0%
0$
#2285
1%
#2290
0%
#2295
1%
#2300
b1100 \
b10100000000000001001 #
b10100000000000001001 l
b111111111111011 B"
b1010 C"
b1010 J
b1001 J"
b11 8
b10 i"
1!
0%
1$
#2305
1%
#2310
0%
#2315
1%
#2320
0%
0$
#2325
1%
#2330
0%
#2335
1%
#2340
b1101 \
b10100000000000001010 #
b10100000000000001010 l
b1011 C"
b1011 J
b1010 J"
b100 8
b11 i"
1!
0%
1$
#2345
1%
#2350
0%
#2355
1%
#2360
0%
0$
#2365
1%
#2370
0%
#2375
1%
#2380
b1110 \
b10100000000000001011 #
b10100000000000001011 l
b111111111111010 B"
b1100 C"
b1100 J
b1011 J"
b11 8
b10 i"
1!
0%
1$
#2385
1%
#2390
0%
#2395
1%
#2400
0%
0$
#2405
1%
#2410
0%
#2415
1%
#2420
b1111 \
b10100000000000001100 #
b10100000000000001100 l
b1101 C"
b1101 J
b1100 J"
b100 8
b11 i"
1!
0%
1$
#2425
1%
#2430
0%
#2435
1%
#2440
0%
0$
#2445
1%
#2450
0%
#2455
1%
#2460
b10000 \
b10100000000000001101 #
b10100000000000001101 l
b111111111111001 B"
b1110 C"
b1110 J
b1101 J"
b11 8
b10 i"
1!
0%
1$
#2465
1%
#2470
0%
#2475
1%
#2480
0%
0$
#2485
1%
#2490
0%
#2495
1%
#2500
b10001 \
b10100000000000001110 #
b10100000000000001110 l
b1111 C"
b1111 J
b1110 J"
b100 8
b11 i"
1!
0%
1$
#2505
1%
#2510
0%
#2515
1%
#2520
0%
0$
#2525
1%
#2530
0%
#2535
1%
#2540
b10010 \
b10100000000000001111 #
b10100000000000001111 l
b111111111111000 B"
b10000 C"
b10000 J
b1111 J"
b11 8
b10 i"
1!
0%
1$
#2545
1%
#2550
0%
#2555
1%
#2560
0%
0$
#2565
1%
#2570
0%
#2575
1%
